module gitlab.com/mrvik/unipdf/v3

go 1.11

require (
	github.com/adrg/sysfont v0.1.0
	github.com/boombuler/barcode v1.0.0
	github.com/golang/freetype v0.0.0-20170609003504-e2365dfdc4a0
	github.com/stretchr/testify v1.4.0
	github.com/unidoc/pkcs7 v0.0.0-20200411230602-d883fd70d1df
	github.com/unidoc/timestamp v0.0.0-20200412005513-91597fd3793a
	github.com/unidoc/unitype v0.2.0
	golang.org/x/crypto v0.0.0-20190605123033-f99c8df09eb5
	golang.org/x/image v0.0.0-20181116024801-cd38e8056d9b
	golang.org/x/text v0.3.2
	golang.org/x/xerrors v0.0.0-20191204190536-9bdfabe68543
)
